,Time,Traffics.crowdness,Traffics.location_number,Traffics.marker_id,Traffics.speed_limit_display
0,09:39:04.801,26.0,17.1,0.0,130.0
1,09:39:05.806,8.0,17.1,0.0,130.0
2,09:39:06.809,18.0,17.1,0.0,130.0
3,09:39:07.811,0.0,17.1,0.0,130.0
4,09:39:08.813,21.0,17.1,0.0,130.0
